[gd_scene load_steps=9 format=2]

[ext_resource path="res://player/gameobjects/player.tscn" type="PackedScene" id=1]
[ext_resource path="res://worldassets/tiles/Wall.png" type="Texture" id=2]
[ext_resource path="res://worldassets/tiles/Floor.png" type="Texture" id=3]
[ext_resource path="res://worldassets/tiles/spike.png" type="Texture" id=4]
[ext_resource path="res://worldassets/gameobjects/spike.tscn" type="PackedScene" id=5]

[sub_resource type="ConvexPolygonShape2D" id=1]
points = PoolVector2Array( 0, 0, 8, 0, 8, 2.00751, 0, 2.00751 )

[sub_resource type="ConvexPolygonShape2D" id=2]
points = PoolVector2Array( 2.01001, 0, 4, 0, 4, 8, 2.01001, 8 )

[sub_resource type="TileSet" id=3]
0/name = "Wall.png 0"
0/texture = ExtResource( 2 )
0/tex_offset = Vector2( 0, 0 )
0/modulate = Color( 1, 1, 1, 1 )
0/region = Rect2( 0, 0, 8, 8 )
0/tile_mode = 0
0/occluder_offset = Vector2( 0, 0 )
0/navigation_offset = Vector2( 0, 0 )
0/shape_offset = Vector2( 0, 0 )
0/shape_transform = Transform2D( 1, 0, 0, 1, 0, 0 )
0/shape_one_way = false
0/shape_one_way_margin = 0.0
0/shapes = [  ]
0/z_index = 0
1/name = "Floor.png 1"
1/texture = ExtResource( 3 )
1/tex_offset = Vector2( 0, 0 )
1/modulate = Color( 1, 1, 1, 1 )
1/region = Rect2( 0, 0, 8, 8 )
1/tile_mode = 0
1/occluder_offset = Vector2( 0, 0 )
1/navigation_offset = Vector2( 0, 0 )
1/shape_offset = Vector2( 0, 0 )
1/shape_transform = Transform2D( 1, 0, 0, 1, 0, 0 )
1/shape = SubResource( 1 )
1/shape_one_way = false
1/shape_one_way_margin = 1.0
1/shapes = [ {
"autotile_coord": Vector2( 0, 0 ),
"one_way": false,
"one_way_margin": 1.0,
"shape": SubResource( 1 ),
"shape_transform": Transform2D( 1, 0, 0, 1, 0, 0 )
} ]
1/z_index = 0
2/name = "spike.png 2"
2/texture = ExtResource( 4 )
2/tex_offset = Vector2( 0, 0 )
2/modulate = Color( 1, 1, 1, 1 )
2/region = Rect2( 4, 0, 4, 8 )
2/tile_mode = 0
2/occluder_offset = Vector2( 0, 0 )
2/navigation_offset = Vector2( 0, 0 )
2/shape_offset = Vector2( 0, 0 )
2/shape_transform = Transform2D( 1, 0, 0, 1, 0, 0 )
2/shape = SubResource( 2 )
2/shape_one_way = false
2/shape_one_way_margin = 1.0
2/shapes = [ {
"autotile_coord": Vector2( 0, 0 ),
"one_way": false,
"one_way_margin": 1.0,
"shape": SubResource( 2 ),
"shape_transform": Transform2D( 1, 0, 0, 1, 0, 0 )
} ]
2/z_index = 0

[node name="Node2D" type="Node2D"]

[node name="spike" parent="." instance=ExtResource( 5 )]
position = Vector2( 318, 172 )
rotation = 0.000304783
z_index = 1

[node name="PlayerCam" type="Camera2D" parent="."]
visible = false
position = Vector2( 0, 1 )
anchor_mode = 0

[node name="Player" parent="." instance=ExtResource( 1 )]
show_behind_parent = true
position = Vector2( 2, 176 )
z_index = 10

[node name="TileMap" type="TileMap" parent="."]
light_mask = 16
rotation = 0.000304783
z_index = -1
tile_set = SubResource( 3 )
cell_size = Vector2( 8, 8 )
cell_custom_transform = Transform2D( 16, 0, 0, 16, 0, 0 )
format = 1
tile_data = PoolIntArray( 851968, 0, 0, 851969, 0, 0, 851970, 0, 0, 851971, 0, 0, 851972, 0, 0, 851973, 0, 0, 851974, 0, 0, 851975, 0, 0, 851976, 0, 0, 851977, 0, 0, 851978, 0, 0, 851979, 0, 0, 851980, 0, 0, 851981, 0, 0, 851982, 0, 0, 851983, 0, 0, 851984, 0, 0, 851985, 0, 0, 851986, 0, 0, 851987, 0, 0, 851988, 0, 0, 851989, 0, 0, 851990, 0, 0, 851991, 0, 0, 851992, 0, 0, 851993, 0, 0, 851994, 0, 0, 851995, 0, 0, 851996, 0, 0, 851997, 0, 0, 851998, 0, 0, 851999, 0, 0, 852000, 0, 0, 852001, 0, 0, 852002, 0, 0, 852003, 0, 0, 852004, 0, 0, 852005, 0, 0, 852006, 0, 0, 852007, 0, 0, 917504, 0, 0, 917505, 0, 0, 917506, 0, 0, 917507, 0, 0, 917508, 0, 0, 917509, 0, 0, 917510, 0, 0, 917511, 0, 0, 917512, 0, 0, 917513, 0, 0, 917514, 0, 0, 917515, 0, 0, 917516, 0, 0, 917517, 0, 0, 917518, 0, 0, 917519, 0, 0, 917520, 0, 0, 917521, 0, 0, 917522, 0, 0, 917523, 0, 0, 917524, 0, 0, 917525, 0, 0, 917526, 0, 0, 917527, 0, 0, 917528, 0, 0, 917529, 0, 0, 917530, 0, 0, 917531, 0, 0, 917532, 0, 0, 917533, 0, 0, 917534, 0, 0, 917535, 0, 0, 917536, 0, 0, 917537, 0, 0, 917538, 0, 0, 917539, 0, 0, 917540, 0, 0, 917541, 0, 0, 917542, 0, 0, 917543, 0, 0, 983040, 0, 0, 983041, 0, 0, 983042, 0, 0, 983043, 0, 0, 983044, 0, 0, 983045, 0, 0, 983046, 0, 0, 983047, 0, 0, 983048, 0, 0, 983049, 0, 0, 983050, 0, 0, 983051, 0, 0, 983052, 0, 0, 983053, 0, 0, 983054, 0, 0, 983055, 0, 0, 983056, 0, 0, 983057, 0, 0, 983058, 0, 0, 983059, 0, 0, 983060, 0, 0, 983061, 0, 0, 983062, 0, 0, 983063, 0, 0, 983064, 0, 0, 983065, 0, 0, 983066, 0, 0, 983067, 0, 0, 983068, 0, 0, 983069, 0, 0, 983070, 0, 0, 983071, 0, 0, 983072, 0, 0, 983073, 0, 0, 983074, 0, 0, 983075, 0, 0, 983076, 0, 0, 983077, 0, 0, 983078, 0, 0, 983079, 0, 0, 1048576, 0, 0, 1048577, 0, 0, 1048578, 0, 0, 1048579, 0, 0, 1048580, 0, 0, 1048581, 0, 0, 1048582, 0, 0, 1048583, 0, 0, 1048584, 0, 0, 1048585, 0, 0, 1048586, 0, 0, 1048587, 0, 0, 1048588, 0, 0, 1048589, 0, 0, 1048590, 0, 0, 1048591, 0, 0, 1048592, 0, 0, 1048593, 0, 0, 1048594, 0, 0, 1048595, 0, 0, 1048596, 0, 0, 1048597, 0, 0, 1048598, 0, 0, 1048599, 0, 0, 1048600, 0, 0, 1048601, 0, 0, 1048602, 0, 0, 1048603, 0, 0, 1048604, 0, 0, 1048605, 0, 0, 1048606, 0, 0, 1048607, 0, 0, 1048608, 0, 0, 1048609, 0, 0, 1048610, 0, 0, 1048611, 0, 0, 1048612, 0, 0, 1048613, 0, 0, 1048614, 0, 0, 1048615, 0, 0, 1114112, 0, 0, 1114113, 0, 0, 1114114, 0, 0, 1114115, 0, 0, 1114116, 0, 0, 1114117, 0, 0, 1114118, 0, 0, 1114119, 0, 0, 1114120, 0, 0, 1114121, 0, 0, 1114122, 0, 0, 1114123, 0, 0, 1114124, 0, 0, 1114125, 0, 0, 1114126, 0, 0, 1114127, 0, 0, 1114128, 0, 0, 1114129, 0, 0, 1114130, 0, 0, 1114131, 0, 0, 1114132, 0, 0, 1114133, 0, 0, 1114134, 0, 0, 1114135, 0, 0, 1114136, 0, 0, 1114137, 0, 0, 1114138, 0, 0, 1114139, 0, 0, 1114140, 0, 0, 1114141, 0, 0, 1114142, 0, 0, 1114143, 0, 0, 1114144, 0, 0, 1114145, 0, 0, 1114146, 0, 0, 1114147, 0, 0, 1114148, 0, 0, 1114149, 0, 0, 1114150, 0, 0, 1114151, 0, 0, 1179648, 0, 0, 1179649, 0, 0, 1179650, 0, 0, 1179651, 0, 0, 1179652, 0, 0, 1179653, 0, 0, 1179654, 0, 0, 1179655, 0, 0, 1179656, 0, 0, 1179657, 0, 0, 1179658, 0, 0, 1179659, 0, 0, 1179660, 0, 0, 1179661, 0, 0, 1179662, 0, 0, 1179663, 0, 0, 1179664, 0, 0, 1179665, 0, 0, 1179666, 0, 0, 1179667, 0, 0, 1179668, 0, 0, 1179669, 0, 0, 1179670, 1, 0, 1179671, 1, 0, 1179672, 1, 0, 1179673, 1, 0, 1179674, 1, 0, 1179675, 1, 0, 1179676, 1, 0, 1179677, 1, 0, 1179678, 0, 0, 1179679, 0, 0, 1179680, 0, 0, 1179681, 0, 0, 1179682, 0, 0, 1179683, 0, 0, 1179684, 0, 0, 1179685, 0, 0, 1179686, 0, 0, 1179687, 0, 0, 1245184, 0, 0, 1245185, 0, 0, 1245186, 0, 0, 1245187, 0, 0, 1245188, 0, 0, 1245189, 0, 0, 1245190, 0, 0, 1245191, 0, 0, 1245192, 0, 0, 1245193, 0, 0, 1245194, 0, 0, 1245195, 0, 0, 1245196, 0, 0, 1245197, 0, 0, 1245198, 0, 0, 1245199, 0, 0, 1245200, 0, 0, 1245201, 0, 0, 1245202, 0, 0, 1245203, 0, 0, 1245204, 0, 0, 1245205, 0, 0, 1245206, 0, 0, 1245207, 0, 0, 1245208, 0, 0, 1245209, 0, 0, 1245210, 0, 0, 1245211, 0, 0, 1245212, 0, 0, 1245213, 0, 0, 1245214, 0, 0, 1245215, 0, 0, 1245216, 0, 0, 1245217, 0, 0, 1245218, 0, 0, 1245219, 0, 0, 1245220, 0, 0, 1245221, 0, 0, 1245222, 0, 0, 1245223, 0, 0, 1310720, 0, 0, 1310721, 0, 0, 1310722, 0, 0, 1310723, 0, 0, 1310724, 0, 0, 1310725, 0, 0, 1310726, 0, 0, 1310727, 0, 0, 1310728, 0, 0, 1310729, 0, 0, 1310730, 0, 0, 1310731, 0, 0, 1310732, 0, 0, 1310733, 0, 0, 1310734, 0, 0, 1310735, 0, 0, 1310736, 0, 0, 1310737, 0, 0, 1310738, 0, 0, 1310739, 0, 0, 1310740, 0, 0, 1310741, 0, 0, 1310742, 0, 0, 1310743, 0, 0, 1310744, 0, 0, 1310745, 0, 0, 1310746, 0, 0, 1310747, 0, 0, 1310748, 0, 0, 1310749, 0, 0, 1310750, 0, 0, 1310751, 0, 0, 1310752, 0, 0, 1310753, 0, 0, 1310754, 0, 0, 1310755, 0, 0, 1310756, 0, 0, 1310757, 0, 0, 1310758, 0, 0, 1310759, 0, 0, 1376256, 0, 0, 1376257, 0, 0, 1376258, 0, 0, 1376259, 0, 0, 1376260, 0, 0, 1376261, 0, 0, 1376262, 0, 0, 1376263, 0, 0, 1376264, 0, 0, 1376265, 0, 0, 1376266, 0, 0, 1376267, 0, 0, 1376268, 0, 0, 1376269, 0, 0, 1376270, 0, 0, 1376271, 0, 0, 1376272, 0, 0, 1376273, 0, 0, 1376274, 0, 0, 1376275, 0, 0, 1376276, 0, 0, 1376277, 0, 0, 1376278, 0, 0, 1376279, 0, 0, 1376280, 0, 0, 1376281, 0, 0, 1376282, 0, 0, 1376283, 0, 0, 1376284, 0, 0, 1376285, 0, 0, 1376286, 0, 0, 1376287, 0, 0, 1376288, 0, 0, 1376289, 0, 0, 1376290, 0, 0, 1376291, 0, 0, 1376292, 0, 0, 1376293, 0, 0, 1376294, 0, 0, 1376295, 0, 0, 1441792, 1, 0, 1441793, 1, 0, 1441794, 1, 0, 1441795, 1, 0, 1441796, 1, 0, 1441797, 1, 0, 1441798, 1, 0, 1441799, 1, 0, 1441800, 1, 0, 1441801, 1, 0, 1441802, 1, 0, 1441803, 1, 0, 1441804, 1, 0, 1441805, 1, 0, 1441806, 1, 0, 1441807, 1, 0, 1441808, 1, 0, 1441809, 1, 0, 1441810, 1, 0, 1441811, 1, 0, 1441812, 1, 0, 1441813, 1, 0, 1441814, 1, 0, 1441815, 1, 0, 1441816, 1, 0, 1441817, 1, 0, 1441818, 1, 0, 1441819, 1, 0, 1441820, 1, 0, 1441821, 1, 0, 1441822, 1, 0, 1441823, 1, 0, 1441824, 1, 0, 1441825, 1, 0, 1441826, 1, 0, 1441827, 1, 0, 1441828, 1, 0, 1441829, 1, 0, 1441830, 1, 0, 1441831, 1, 0 )
